

RMS_L1= 5.95569419708e-06
RMS_L2= 4.4048702681e-08

RMS_L1= 8.30196635555e-07
RMS_L2= 5.99284548137e-09
0.000595569419708 0.0 1798.49453112 -0.421166666667 417.602934428   
4.4048702681e-07 7.45058059692e-09 0.780342711962 0.6841 417.602934428   
0.000595569419708 0.0 1798.49453112 -0.563433333333 335.721512591   
4.4048702681e-07 0.0 0.780342711962 0.1905 335.721512591   
0.000595569419708 5.26835606386e-09 1798.49453112 -0.448233333333 188.867744208   
4.4048702681e-07 1.86264514923e-09 0.780342711962 -0.1733 188.867744208   
0.000595569419708 7.45058059692e-09 1798.49453112 -0.510033333333 159.594460742   
4.4048702681e-07 0.0 0.780342711962 -0.401833333333 159.594460742   
0.000595569419708 0.0 1798.49453112 -0.196966666667 47.2938880943   
4.4048702681e-07 7.45058059692e-09 0.780342711962 -0.464433333333 47.2938880943   
0.000595569419708 0.0 1798.49453112 -0.0692333333333 14.4531402345   
4.4048702681e-07 3.72529029846e-09 0.780342711962 -0.2567 14.4531402345   
0.000595569419708 0.0 1798.49453112 -0.0239 4.81608195441   
4.4048702681e-07 2.63417803193e-09 0.780342711962 -0.1503 4.81608195441   
8.30196635555e-05 0.0 210.839091331 -0.2875 417.602934428   
5.99284548137e-08 0.0 0.119095130318 0.443966666667 417.602934428   
8.30196635555e-05 0.0 210.839091331 -0.5083 335.721512591   
5.99284548137e-08 0.0 0.119095130318 0.235233333333 335.721512591   
8.30196635555e-05 5.26835606386e-09 210.839091331 -0.472633333333 188.867744208   
5.99284548137e-08 0.0 0.119095130318 0.246966666667 188.867744208   
8.30196635555e-05 0.0 210.839091331 -0.602566666667 159.594460742   
5.99284548137e-08 0.0 0.119095130318 -0.3265 159.594460742   
8.30196635555e-05 3.72529029846e-09 210.839091331 -0.251433333333 47.2938880943   
5.99284548137e-08 0.0 0.119095130318 -0.459966666667 47.2938880943   
8.30196635555e-05 0.0 210.839091331 -0.0910333333333 14.4531402345   
5.99284548137e-08 0.0 0.119095130318 -0.413566666667 14.4531402345   
8.30196635555e-05 0.0 210.839091331 -0.0312333333333 4.81608195441   
5.99284548137e-08 0.0 0.119095130318 -0.4443 4.81608195441   
CALCULATING MATRIX.........n23


finished process
##############################


MATRIX PERMUTATION.....n2

 
MATRIX PERMUTATION.....n3

 
finished process
##############################


MODES.....n2

 
MODES.....n3

 
finished process
##############################


MODES.....n2

 
MODES.....n3

 
finished process 




