{
  "1": [
    7.733847219617346e-05, 
    0.026232236687972626, 
    0.07780101650577574, 
    0.12286419496934618, 
    0.07552512057566603, 
    0.05901929587552505, 
    0.03899188153381786
  ], 
  "3": [
    5.681427666719978e-05, 
    0.045946767946831536, 
    0.13689922616060335, 
    0.20014940661521444, 
    0.2948978756113742, 
    0.32329126241697304, 
    0.19693419274100316
  ], 
  "2": [
    6.851037274712355e-05, 
    0.06641229715571224, 
    0.1051354399734043, 
    0.2130138920223787, 
    0.25779525542178144, 
    0.34607390075136174, 
    0.18329951844284537
  ], 
  "5": [
    3.5888160029374124e-05, 
    0.04723315966957426, 
    0.2005434901957365, 
    0.14934948671499101, 
    0.352801630389865, 
    0.245352802070725, 
    0.25019106167396676
  ], 
  "4": [
    5.4523843610931355e-05, 
    0.031957882792540596, 
    0.17494154451145028, 
    0.15397925258351028, 
    0.14499978349677714, 
    0.11782339941583192, 
    0.06845286497823518
  ], 
  "7": [
    0.0, 
    0.021176572920891604, 
    0.08653728714001928, 
    0.07433952489354431, 
    0.2843429147413125, 
    0.41440110997837093, 
    0.33465667139031285
  ], 
  "6": [
    1.7783776608603098e-05, 
    0.029870986465186516, 
    0.12430651091804071, 
    0.09852386918745387, 
    0.35073303044276233, 
    0.38015393833284705, 
    0.26523951046225536
  ]
}