{
  "1": 0.0006262743728906487, 
  "3": 4.356519551886236e-07, 
  "2": 5.362994987103331e-07, 
  "5": 1.9086433138623085e-08, 
  "4": 9.268414456117696e-08, 
  "7": 8.491139173885095e-09, 
  "6": 8.975311772616758e-09
}