

RMS_L1= 0.000215513746444
RMS_L2= 0.00179015940316

RMS_L1= 0.000138420706213
RMS_L2= 0.000429838327912
0.0215513746444 2.89519994572e-05 901.253351814 -0.422243553333 253.627116819   
0.0179015940316 0.0174455092523 0.532223005285 0.49887933963 253.627116819   
0.0215513746444 2.6666159838e-05 901.253351814 -0.564442353333 204.468799949   
0.0179015940316 0.0281720070967 0.532223005285 0.235426207585 204.468799949   
0.0215513746444 3.27128366137e-05 901.253351814 -0.44806006 115.248696125   
0.0179015940316 0.0299060968623 0.532223005285 0.0219608807781 115.248696125   
0.0215513746444 1.89379235154e-05 901.253351814 -0.508502113333 97.4035352584   
0.0179015940316 0.0 0.532223005285 0.0 97.4035352584   
0.0215513746444 1.97939060943e-05 901.253351814 -0.195906513333 28.7990946251   
0.0179015940316 0.00748759928774 0.532223005285 -0.349049665073 28.7990946251   
0.0215513746444 0.0 901.253351814 -0.0688333333333 8.78620143758   
0.0179015940316 0.0124056040694 0.532223005285 -0.245314727376 8.78620143758   
0.0215513746444 0.0 901.253351814 -0.0255666666667 3.14350656212   
0.0179015940316 0.0115235769516 0.532223005285 -0.183369745761 3.14350656212   
0.0138420706213 0.000182102533235 87.8691501883 0.287916693333 253.627116819   
0.00429838327912 0.0168327317879 0.0193922085529 -0.0142540870265 253.627116819   
0.0138420706213 0.00015703556185 87.8691501883 0.509289766667 204.468799949   
0.00429838327912 0.0770984527113 0.0193922085529 0.642959512438 204.468799949   
0.0138420706213 0.000129008695357 87.8691501883 0.473256453333 115.248696125   
0.00429838327912 0.0404692817324 0.0193922085529 -0.0534907141392 115.248696125   
0.0138420706213 0.000120406307059 87.8691501883 0.6018439 97.4035352584   
0.00429838327912 0.0855876021619 0.0193922085529 0.343064136975 97.4035352584   
0.0138420706213 7.58810880783e-05 87.8691501883 0.24971154 28.7990946251   
0.00429838327912 0.0643600103915 0.0193922085529 0.0798850282221 28.7990946251   
0.0138420706213 4.18479257426e-05 87.8691501883 0.0899942 8.78620143758   
0.00429838327912 0.0960939155989 0.0193922085529 0.261887207172 8.78620143758   
0.0138420706213 3.02244632374e-05 87.8691501883 0.0329498066667 3.14350656212   
0.00429838327912 0.0423691292212 0.0193922085529 0.0682284785291 3.14350656212   
CALCULATING MATRIX.........n23


finished process
##############################


MATRIX PERMUTATION.....n2

 
MATRIX PERMUTATION.....n3

 
finished process
##############################


MODES.....n2

 
MODES.....n3

 
finished process
##############################


MODES.....n2

 
MODES.....n3

 
finished process 




