{
  "dV_11": 0.4063910835090607, 
  "dV_12": 0.28855687246971884, 
  "dV_13": 0.22127314324571393, 
  "dV_14": 0.22292524622585339, 
  "dV_15": 0.10724950792733492, 
  "dV_16": 0.05372927369516844, 
  "dV_17": 0.028911538899489803, 
  "dV_21": 0.28855687246971884, 
  "dV_22": 0.39789220013407406, 
  "dV_23": 0.21999174960655007, 
  "dV_24": 0.22026370829525338, 
  "dV_25": 0.10655965154461676, 
  "dV_26": 0.05380394965630009, 
  "dV_27": 0.02908472298179706, 
  "dV_31": 0.22127314324571393, 
  "dV_32": 0.21999174960655007, 
  "dV_33": 0.23330876672666845, 
  "dV_34": 0.16941923210543042, 
  "dV_35": 0.08193286597611009, 
  "dV_36": 0.04136642780774173, 
  "dV_37": 0.02237683912733974, 
  "dV_41": 0.22292524622585339, 
  "dV_42": 0.22026370829525338, 
  "dV_43": 0.16941923210543042, 
  "dV_44": 0.23121150254783324, 
  "dV_45": 0.08299421046176363, 
  "dV_46": 0.041966236449362315, 
  "dV_47": 0.022727905113104335, 
  "dV_51": 0.10724950792733492, 
  "dV_52": 0.10655965154461676, 
  "dV_53": 0.08193286597611009, 
  "dV_54": 0.08299421046176363, 
  "dV_55": 0.05573247246523756, 
  "dV_56": 0.0202409987679328, 
  "dV_57": 0.010876163942076047, 
  "dV_61": 0.05372927369516844, 
  "dV_62": 0.05380394965630009, 
  "dV_63": 0.04136642780774173, 
  "dV_64": 0.041966236449362315, 
  "dV_65": 0.0202409987679328, 
  "dV_66": 0.014155558245322003, 
  "dV_67": 0.005421850125055332, 
  "dV_71": 0.028911538899489803, 
  "dV_72": 0.02908472298179706, 
  "dV_73": 0.02237683912733974, 
  "dV_74": 0.022727905113104335, 
  "dV_75": 0.010876163942076047, 
  "dV_76": 0.005421850125055332, 
  "dV_77": 0.004102028653145
}