Name collision between dumb dumb
Name collision between ansi ansi
Name collision between vt102 vt102
Name collision between vt100 vt100
Name collision between vt220 vt220
Name collision between vt52 vt52
Name collision between vt100-nav vt100-nav
Name collision between linux linux
Name collision between dumb dumb
Name collision between ansi ansi
Name collision between vt102 vt102
Name collision between vt100 vt100
Name collision between vt220 vt220
Name collision between vt52 vt52
Name collision between vt100-nav vt100-nav
Name collision between linux linux
MEAN_L1= 3.62017148071e-06
MEAN_L2= 3.16411376026e-06
Name collision between dumb dumb
Name collision between ansi ansi
Name collision between vt102 vt102
Name collision between vt100 vt100
Name collision between vt220 vt220
Name collision between vt52 vt52
Name collision between vt100-nav vt100-nav
Name collision between linux linux
MEAN_L1= 2.37603490857e-06
MEAN_L2= 3.10750160681e-05
0.000362017148071 0.000101556429982 359.753598492 -0.42402446 123.822884917   
3.16411376026e-05 0.0670946159022 0.255052284977 -0.822188403902 123.822884917   
0.000362017148071 9.26604074929e-05 359.753598492 -0.565792066667 101.319358091   
3.16411376026e-05 0.0965551000664 0.255052284977 0.455640420396 101.319358091   
0.000362017148071 8.12248125962e-05 359.753598492 -0.447804406667 57.6200467646   
3.16411376026e-05 0.158069696481 0.255052284977 0.167288755909 57.6200467646   
0.000362017148071 7.85171888203e-05 359.753598492 -0.50599938 48.3246568275   
3.16411376026e-05 0.135648934965 0.255052284977 -0.0304579603741 48.3246568275   
0.000362017148071 4.50711038123e-05 359.753598492 -0.193255326667 13.6874272219   
3.16411376026e-05 0.0679470960697 0.255052284977 0.146436337122 13.6874272219   
0.000362017148071 2.07398746379e-05 359.753598492 -0.0696980933333 3.98235151542   
3.16411376026e-05 0.0272530257298 0.255052284977 0.0275131750981 3.98235151542   
0.000362017148071 1.18768327291e-05 359.753598492 -0.0362349133333 1.74866124836   
3.16411376026e-05 0.0421191328127 0.255052284977 0.0306488953703 1.74866124836   
0.000237603490857 0.000889608652112 31.2808607569 -0.287883373333 123.822884917   
0.000310750160681 0.378708434861 0.123639430344 0.0512573344935 123.822884917   
0.000237603490857 0.000767837464276 31.2808607569 -0.509267526667 101.319358091   
0.000310750160681 0.420924252223 0.123639430344 0.173460807773 101.319358091   
0.000237603490857 0.000625622093961 31.2808607569 -0.472233006667 57.6200467646   
0.000310750160681 0.365545468463 0.123639430344 0.239852352984 57.6200467646   
0.000237603490857 0.000573832340236 31.2808607569 -0.600654966667 48.3246568275   
0.000310750160681 0.325260675379 0.123639430344 -0.446610862156 48.3246568275   
0.000237603490857 0.000348696404305 31.2808607569 -0.24991276 13.6874272219   
0.000310750160681 0.278759623622 0.123639430344 0.226784613154 13.6874272219   
0.000237603490857 0.000177908914399 31.2808607569 -0.0945743533333 3.98235151542   
0.000310750160681 0.103627730665 0.123639430344 -0.0583850627221 3.98235151542   
0.000237603490857 0.00014152318051 31.2808607569 -0.0507562066667 1.74866124836   
0.000310750160681 0.0824291668356 0.123639430344 0.0140635486912 1.74866124836   
CALCULATING MATRIX.........n23


finished process
##############################


MATRIX PERMUTATION.....n2

 
MATRIX PERMUTATION.....n3

 
finished process
##############################


MODES.....n2

 
MODES.....n3

 
finished process
##############################


MODES.....n2

 
MODES.....n3

 
finished process 




