{
  "1": [
    -0.42116733999999995, 
    0.6536515951595165, 
    -0.4716652224503768, 
    -0.1309979392173192, 
    0.05774209742391933, 
    -0.044540568942436264, 
    0.00812351369405488
  ], 
  "3": [
    -0.4482026866666665, 
    -0.15547939793979404, 
    0.020396249144421834, 
    0.3176622675548161, 
    0.2799188957719779, 
    0.29545137215528783, 
    -0.13827220440881802
  ], 
  "2": [
    -0.5634414666666666, 
    0.19208648531519826, 
    0.6380303080082138, 
    -0.13505582847626954, 
    -0.07473116346772236, 
    -0.027400287817938268, 
    0.011270561122244543
  ], 
  "5": [
    -0.19694909999999996, 
    -0.47038792212554686, 
    -0.07482893908281983, 
    -0.22929016097696406, 
    0.2804770420771129, 
    -0.330460890227578, 
    0.12868064796259174
  ], 
  "4": [
    -0.5100154933333333, 
    -0.39138640197353003, 
    -0.2813020533880909, 
    0.11014628781570919, 
    -0.3097040282996506, 
    -0.11275145917001363, 
    0.10684749498998014
  ], 
  "7": [
    -0.023903879999999916, 
    -0.15688568523519028, 
    -0.08335030116358674, 
    -0.19295689703025276, 
    -0.03291151619782646, 
    0.4791095582329313, 
    0.40154245824983426
  ], 
  "6": [
    -0.06923332666666658, 
    -0.2576499816648331, 
    -0.1413738124572211, 
    -0.25298915487094187, 
    -0.06021558850411278, 
    0.18633040829986608, 
    -0.5380057381429528
  ]
}