{
  "1": [
    0.0013185677010476864, 
    0.550792556420672, 
    0.4294536540158114, 
    0.37810023618796085, 
    0.11929551422699773, 
    0.1053179090862317, 
    0.09353957633011825
  ], 
  "3": [
    0.0009263014708997846, 
    0.3439260592587429, 
    0.401861867501707, 
    0.26184422872979457, 
    0.13892155504221693, 
    0.13688519513108943, 
    0.11374626163376936
  ], 
  "2": [
    0.0011635963773785455, 
    0.39429626550654384, 
    0.5029535379093216, 
    0.22901217016045217, 
    0.0816368159437226, 
    0.09242058290995984, 
    0.07698417231254613
  ], 
  "5": [
    0.0005288311948723149, 
    0.10594753121760006, 
    0.17882757410972894, 
    0.20825580446043152, 
    0.20556419295691797, 
    0.27612688992792406, 
    0.4073049512641437
  ], 
  "4": [
    0.0008723878068707637, 
    0.2872108358769367, 
    0.39845413468473717, 
    0.2689250494464002, 
    0.10545636255052905, 
    0.11733677187538791, 
    0.1429219154118038
  ], 
  "7": [
    0.0001904832306432379, 
    0.05798344339502465, 
    0.06552427855077231, 
    0.14080055531262006, 
    0.25684104222139953, 
    0.33850261108415136, 
    0.3812008418422597
  ], 
  "6": [
    0.00027353468672964453, 
    0.061948241013538574, 
    0.08825042334047078, 
    0.1379275183925452, 
    0.214273637601667, 
    0.4588667993604197, 
    0.32690946148237093
  ]
}