{
  "1": 6305.7812354248781, 
  "2": 2.8607859303946217, 
  "3": 1.0290279973896856, 
  "4": 0.80749899544489256, 
  "5": 0.11210240540880023, 
  "6": -0.01698552707178692, 
  "7": -0.26934056150120061
}