{
  "1": [
    2.6488709084370625e-05, 
    0.04240702742461776, 
    0.21933442708956433, 
    0.2518334952024034, 
    0.220849234795739, 
    0.21040906700103496, 
    0.19060199746214862
  ], 
  "3": [
    2.1593743464401996e-05, 
    0.03566885723020014, 
    0.18362525991244658, 
    0.32929734936086064, 
    0.38023891515162633, 
    0.3481404330894986, 
    0.310648115809074
  ], 
  "2": [
    1.7345719713724657e-05, 
    0.04334851771455416, 
    0.3037785807964442, 
    0.24094565492508965, 
    0.2806094959950231, 
    0.24702831057875363, 
    0.2278039016251648
  ], 
  "5": [
    9.427119261136045e-07, 
    0.025446121906716104, 
    0.14316771262882017, 
    0.2631373949104594, 
    0.2751748106791631, 
    0.25547108863033025, 
    0.42945395049247737
  ], 
  "4": [
    2.5490192634301395e-05, 
    0.02413796522807241, 
    0.1914553371489789, 
    0.2479963548000941, 
    0.22799839495855492, 
    0.20548506570317504, 
    0.23179267211838903
  ], 
  "7": [
    0.0, 
    0.010484745448086185, 
    0.12785146193600175, 
    0.2817857945227676, 
    0.4514709528062905, 
    0.4540792934650246, 
    0.43315738198398307
  ], 
  "6": [
    0.0, 
    0.016877091663469655, 
    0.19471804568104495, 
    0.4169152782589356, 
    0.2909560117255959, 
    0.36179449703410954, 
    0.4019671013684117
  ]
}