{
  "dV_11": 0.8265087964112788, 
  "dV_12": 0.5787228178545083, 
  "dV_13": 0.4449261663098616, 
  "dV_14": 0.43952073692793364, 
  "dV_15": 0.21523092886495676, 
  "dV_16": 0.10682542015637385, 
  "dV_17": 0.054524134529825886, 
  "dV_21": 0.5787228178545083, 
  "dV_22": 0.7916604290873214, 
  "dV_23": 0.4396650796294558, 
  "dV_24": 0.4341655156914399, 
  "dV_25": 0.2118086071610153, 
  "dV_26": 0.10503702383691976, 
  "dV_27": 0.05358536571675538, 
  "dV_31": 0.4449261663098616, 
  "dV_32": 0.4396650796294558, 
  "dV_33": 0.4673800887452362, 
  "dV_34": 0.33531064740404803, 
  "dV_35": 0.16323098827593666, 
  "dV_36": 0.08085886811203927, 
  "dV_37": 0.041210498870290595, 
  "dV_41": 0.43952073692793364, 
  "dV_42": 0.4341655156914399, 
  "dV_43": 0.33531064740404803, 
  "dV_44": 0.45169473160915385, 
  "dV_45": 0.1623957281543849, 
  "dV_46": 0.08008533840354638, 
  "dV_47": 0.04081750217477183, 
  "dV_51": 0.21523092886495676, 
  "dV_52": 0.2118086071610153, 
  "dV_53": 0.16323098827593666, 
  "dV_54": 0.1623957281543849, 
  "dV_55": 0.11055345096112135, 
  "dV_56": 0.03947265130757696, 
  "dV_57": 0.020060606760657195, 
  "dV_61": 0.10682542015637385, 
  "dV_62": 0.10503702383691976, 
  "dV_63": 0.08085886811203927, 
  "dV_64": 0.08008533840354638, 
  "dV_65": 0.03947265130757696, 
  "dV_66": 0.027548560226315112, 
  "dV_67": 0.010001381942795812, 
  "dV_71": 0.054524134529825886, 
  "dV_72": 0.05358536571675538, 
  "dV_73": 0.041210498870290595, 
  "dV_74": 0.04081750217477183, 
  "dV_75": 0.020060606760657195, 
  "dV_76": 0.010001381942795812, 
  "dV_77": 0.0072292591189362975
}