{
  "1": [
    0.00015538490651920207, 
    0.05396562413098145, 
    0.43097664180189704, 
    0.4491722096349901, 
    0.29908194057140763, 
    0.2790703808449136, 
    0.1978596021965399
  ], 
  "3": [
    0.00011170808296135481, 
    0.06052072618176871, 
    0.3302073413233838, 
    0.33255241669100205, 
    0.48772301601675877, 
    0.29640662132450507, 
    0.24214337093741706
  ], 
  "2": [
    0.00013584514014445948, 
    0.04847535021687225, 
    0.2676617764903667, 
    0.23962072975574583, 
    0.23213725243717476, 
    0.15836845231836597, 
    0.14582573188898978
  ], 
  "5": [
    6.64105428531126e-05, 
    0.001930903638379962, 
    0.2723327604730805, 
    0.4233344090984836, 
    0.37733475831251395, 
    0.2693498319029732, 
    0.3668120448656658
  ], 
  "4": [
    0.00010416466909156736, 
    0.011700938515406718, 
    0.238646263700359, 
    0.27094765240673024, 
    0.30836863473792764, 
    0.18317650290978504, 
    0.16613077639314844
  ], 
  "7": [
    2.4663782708854887e-05, 
    0.00010990454346943705, 
    0.18338073447664, 
    0.2863360877949433, 
    0.31702246409954576, 
    0.4150903917595257, 
    0.3663259994510734
  ], 
  "6": [
    3.7678744366818144e-05, 
    0.0005783565515796505, 
    0.26532688770427826, 
    0.40232857416783024, 
    0.3365634646985341, 
    0.41973647343796455, 
    0.3088452807450927
  ]
}