

MEAN_L1= 8.59187621335e-06
MEAN_L2= 6.97493078176e-05

MEAN_L1= 5.31563507264e-06
MEAN_L2= 8.12992819546e-05
0.000859187621335 5.10229225741e-05 1798.90851463 -0.421282393333 417.613113582   
0.000697493078176 0.0663044343979 0.82327957358 -0.55827134 417.613113582   
0.000859187621335 4.78079385442e-05 1798.90851463 -0.563470633333 335.740887284   
0.000697493078176 0.0623861904728 0.82327957358 -0.30919466 335.740887284   
0.000859187621335 4.15056006752e-05 1798.90851463 -0.448113693333 188.873123564   
0.000697493078176 0.0807743014992 0.82327957358 0.0864186066667 188.873123564   
0.000859187621335 4.18386296964e-05 1798.90851463 -0.50999068 159.606911304   
0.000697493078176 0.0491218828912 0.82327957358 0.512225066667 159.606911304   
0.000859187621335 3.12526614959e-05 1798.90851463 -0.19685466 47.2969778031   
0.000697493078176 0.04954038021 0.82327957358 0.436797553333 47.2969778031   
0.000859187621335 1.31729537448e-05 1798.90851463 -0.0692972866667 14.4555346102   
0.000697493078176 0.03464890243 0.82327957358 0.2732278 14.4555346102   
0.000859187621335 1.32501672925e-05 1798.90851463 -0.02396392 4.81619522023   
0.000697493078176 0.0240854659938 0.82327957358 0.189690626667 4.81619522023   
0.000531563507264 0.00028892794951 210.772174781 -0.287605866667 417.613113582   
0.000812992819546 0.427259570028 0.296185084608 -0.374007930793 417.613113582   
0.000531563507264 0.000250129273937 210.772174781 -0.508083446667 335.740887284   
0.000812992819546 0.382298492833 0.296185084608 0.563031019769 335.740887284   
0.000531563507264 0.000205751282013 210.772174781 -0.472566233333 188.873123564   
0.000812992819546 0.257745499622 0.296185084608 -0.0493501716838 188.873123564   
0.000531563507264 0.000190683863351 210.772174781 -0.60253486 159.606911304   
0.000812992819546 0.230465653614 0.296185084608 -0.191122962296 159.606911304   
0.000531563507264 0.00011673534817 210.772174781 -0.252005693333 47.2969778031   
0.000812992819546 0.104764016547 0.296185084608 -0.10651752842 47.2969778031   
0.000531563507264 6.22040212778e-05 210.772174781 -0.0909937466667 14.4555346102   
0.000812992819546 0.100143728489 0.296185084608 -0.123091859186 14.4555346102   
0.000531563507264 3.7787799909e-05 210.772174781 -0.0313002866667 4.81619522023   
0.000812992819546 0.0666957173564 0.296185084608 -0.0628550488382 4.81619522023   
CALCULATING MATRIX.........n23


finished process
##############################


MATRIX PERMUTATION.....n2

 
MATRIX PERMUTATION.....n3

 
finished process
##############################


MODES.....n2

 
MODES.....n3

 
finished process
##############################


MODES.....n2

 
MODES.....n3

 
finished process 




