{
  "dV_11": 0.13259186832963415, 
  "dV_12": 0.09714928661852867, 
  "dV_13": 0.07663002102918123, 
  "dV_14": 0.08105606070440821, 
  "dV_15": 0.04084763443730848, 
  "dV_16": 0.021143387249099557, 
  "dV_17": 0.011834807073121918, 
  "dV_21": 0.09714928661852867, 
  "dV_22": 0.13716918440449502, 
  "dV_23": 0.07859188157355078, 
  "dV_24": 0.08270862831733322, 
  "dV_25": 0.04185711222393526, 
  "dV_26": 0.021815429781816918, 
  "dV_27": 0.012264194689127435, 
  "dV_31": 0.07663002102918123, 
  "dV_32": 0.07859188157355078, 
  "dV_33": 0.08511485588650135, 
  "dV_34": 0.06550115278522184, 
  "dV_35": 0.033114769211357226, 
  "dV_36": 0.017258146518485964, 
  "dV_37": 0.009709418998772831, 
  "dV_41": 0.08105606070440821, 
  "dV_42": 0.08270862831733322, 
  "dV_43": 0.06550115278522184, 
  "dV_44": 0.09277455509789728, 
  "dV_45": 0.03526891407844438, 
  "dV_46": 0.018414988661638224, 
  "dV_47": 0.010378652433256587, 
  "dV_51": 0.04084763443730848, 
  "dV_52": 0.04185711222393526, 
  "dV_53": 0.033114769211357226, 
  "dV_54": 0.03526891407844438, 
  "dV_55": 0.024617523198110003, 
  "dV_56": 0.00932951209943493, 
  "dV_57": 0.005214834054691314, 
  "dV_61": 0.021143387249099557, 
  "dV_62": 0.021815429781816918, 
  "dV_63": 0.017258146518485964, 
  "dV_64": 0.018414988661638224, 
  "dV_65": 0.00932951209943493, 
  "dV_66": 0.006728504948034541, 
  "dV_67": 0.002695268317230675, 
  "dV_71": 0.011834807073121918, 
  "dV_72": 0.012264194689127435, 
  "dV_73": 0.009709418998772831, 
  "dV_74": 0.010378652433256587, 
  "dV_75": 0.005214834054691314, 
  "dV_76": 0.002695268317230675, 
  "dV_77": 0.0022108393274072593
}