{
  "1": [
    0.00014942080758506595, 
    0.22438597096564986, 
    0.1742285548088738, 
    0.14670882304090785, 
    0.1431956288023975, 
    0.1653901335613277, 
    0.12457583579425484
  ], 
  "3": [
    0.00010589408203976722, 
    0.09023639856471952, 
    0.19712108807699552, 
    0.16732937216090674, 
    0.2094222172687974, 
    0.24325141736691636, 
    0.19626915524745392
  ], 
  "2": [
    0.00012955102492754667, 
    0.1447357435017264, 
    0.22270284248595254, 
    0.09997796746270218, 
    0.21119555437179635, 
    0.14579689110136662, 
    0.17173676159389753
  ], 
  "5": [
    6.133734460252189e-05, 
    0.08628235839121814, 
    0.06187373554451321, 
    0.24362349524218307, 
    0.5507086621071523, 
    0.395280983155001, 
    0.45134197246597874
  ], 
  "4": [
    9.899223379987287e-05, 
    0.13594301267108955, 
    0.08278273756218583, 
    0.15355019988533217, 
    0.4489647151425627, 
    0.19778817813445096, 
    0.2989680704670593
  ], 
  "7": [
    2.2883449620061825e-05, 
    0.07717316667844654, 
    0.056655609685081314, 
    0.18787194291955348, 
    0.42057542333247105, 
    0.3962127448867301, 
    0.5130363429744202
  ], 
  "6": [
    3.663634565932422e-05, 
    0.10243147957652904, 
    0.08700336357269552, 
    0.24300564078082035, 
    0.2761807498617615, 
    0.3893465567013791, 
    0.44861570363714687
  ]
}