

RMS_L1= 0.00199034837655
RMS_L2= 0.0193276451071

RMS_L1= 0.00178893836865
RMS_L2= 0.0313958980266
0.199034837655 0.00184168419769 118.678734506 -0.365660686667 2035.2018493   
0.193276451071 0.0585918785674 2.20976134685 0.488673426977 2035.2018493   
0.199034837655 0.00164680802071 118.678734506 -0.52912064 1696.8766768   
0.193276451071 0.0578246975432 2.20976134685 0.439013774309 1696.8766768   
0.199034837655 0.00136297196679 118.678734506 -0.438180866667 1007.5774037   
0.193276451071 0.0289932601087 2.20976134685 0.0829533194651 1007.5774037   
0.199034837655 0.00132827903657 118.678734506 -0.5547287 929.18053335   
0.193276451071 0.0158098519678 2.20976134685 -0.175016136508 929.18053335   
0.199034837655 0.000836928270529 118.678734506 -0.261471826667 313.731437275   
0.193276451071 0.0159001385424 2.20976134685 -0.309439949026 313.731437275   
0.199034837655 0.000473805756931 118.678734506 -0.121272893333 107.875550975   
0.193276451071 0.017308702377 2.20976134685 -0.188561423583 107.875550975   
0.199034837655 0.00027428352882 118.678734506 -0.0592527266667 38.580580675   
0.193276451071 0.0152676419564 2.20976134685 -0.130914264798 38.580580675   
0.178893836865 0.000418202482336 496.125714043 0.273960853333 2035.2018493   
0.313958980266 0.130124941519 1.37693940765 0.408275551107 2035.2018493   
0.178893836865 0.000376732000141 496.125714043 0.464603666667 1696.8766768   
0.313958980266 0.0712087051781 1.37693940765 0.498293503526 1696.8766768   
0.178893836865 0.00030427359373 496.125714043 0.451322226667 1007.5774037   
0.313958980266 0.0762539570131 1.37693940765 0.428710884386 1007.5774037   
0.178893836865 0.000281640259653 496.125714043 0.630010093333 929.18053335   
0.313958980266 0.0398855022349 1.37693940765 0.242917877429 929.18053335   
0.178893836865 0.000194336649962 496.125714043 0.301250906667 313.731437275   
0.313958980266 0.0572549347888 1.37693940765 0.319486064379 313.731437275   
0.178893836865 0.000108158296299 496.125714043 0.124510306667 107.875550975   
0.313958980266 0.036563246385 1.37693940765 0.175006467369 107.875550975   
0.178893836865 6.27264817375e-05 496.125714043 0.0472078066667 38.580580675   
0.313958980266 0.0279284371963 1.37693940765 0.0936645302337 38.580580675   
CALCULATING MATRIX.........n23


finished process
##############################


MATRIX PERMUTATION.....n2

 
MATRIX PERMUTATION.....n3

 
finished process
##############################


MODES.....n2

 
MODES.....n3

 
finished process
##############################


MODES.....n2

 
MODES.....n3

 
finished process 




