{
  "1": [
    5.637081928274107e-05, 
    0.3099142970328203, 
    0.33903263846384196, 
    0.3863074163529342, 
    0.2861374985178384, 
    0.18515845025653047, 
    0.17102939419587665
  ], 
  "3": [
    4.315180751022127e-05, 
    0.2614642306693552, 
    0.3550353414137904, 
    0.3471069429994406, 
    0.30933856155468775, 
    0.20778144841348592, 
    0.21455615072557824
  ], 
  "2": [
    5.111172794752678e-05, 
    0.20366586678613743, 
    0.3112987489264093, 
    0.22675787153570376, 
    0.19194158362838046, 
    0.1878282432383396, 
    0.15641096786668318
  ], 
  "5": [
    2.35847016678223e-05, 
    0.19593882701574725, 
    0.38332966216964315, 
    0.44497256319507494, 
    0.3261150860714242, 
    0.31236042749554843, 
    0.3016148716957585
  ], 
  "4": [
    4.0734229993732386e-05, 
    0.2192667989745862, 
    0.3671587959888627, 
    0.32462608148820715, 
    0.3002063974169549, 
    0.20248015743506087, 
    0.20316190162680836
  ], 
  "7": [
    7.832694991097242e-06, 
    0.03192524372569089, 
    0.10133607398228306, 
    0.23964496420641523, 
    0.42929380141510487, 
    0.36726757594798104, 
    0.554074313340455
  ], 
  "6": [
    1.5067846549786219e-05, 
    0.061423542878290105, 
    0.1602891527121145, 
    0.2598488370700132, 
    0.3619079543041776, 
    0.5536990541932281, 
    0.37031507319188756
  ]
}