{
  "1": [
    2.6482160930104446e-05, 
    0.04335799931322606, 
    0.22026587680761925, 
    0.24956970161741684, 
    0.21832887254716657, 
    0.2077652205958688, 
    0.18677604779205823
  ], 
  "3": [
    2.1369136057223235e-05, 
    0.03594426996176719, 
    0.18470016545325274, 
    0.3304186602977912, 
    0.37897494602336745, 
    0.345532739300951, 
    0.3118310412565107
  ], 
  "2": [
    1.7388501096828494e-05, 
    0.04386262116700241, 
    0.30678182183631114, 
    0.24469945947622085, 
    0.27626057644492563, 
    0.242413153547549, 
    0.228114055185317
  ], 
  "5": [
    1.763215749782825e-06, 
    0.02539105899450129, 
    0.14357334310962525, 
    0.261879956478855, 
    0.2742794907194886, 
    0.2494948829144327, 
    0.42545978715899635
  ], 
  "4": [
    2.528044907375655e-05, 
    0.024355128286159013, 
    0.19377233192979978, 
    0.2467094065120297, 
    0.22803923655933958, 
    0.20271558317798263, 
    0.23004638488200918
  ], 
  "7": [
    0.0, 
    0.010513333596226693, 
    0.126477753668423, 
    0.2795257045943151, 
    0.45386296985712815, 
    0.4598540468341763, 
    0.4369925386020046
  ], 
  "6": [
    0.0, 
    0.016955922767664354, 
    0.19903802152201108, 
    0.41026935154465854, 
    0.29026185157675916, 
    0.35351816224826, 
    0.40893931752736284
  ]
}