

MEAN_L1= 2.53582224894e-05
MEAN_L2= 0.000237313193305

MEAN_L1= 1.68092592221e-05
MEAN_L2= 0.00027669461266
0.00253582224894 6.97728498804e-05 3751.34918605 -0.418304873333 969.940983278   
0.00237313193305 0.33165742019 1.27888533265 -0.408960791381 969.940983278   
0.00253582224894 6.54641421829e-05 3751.34918605 -0.560975473333 776.58039398   
0.00237313193305 0.292667587331 1.27888533265 -0.332411963725 776.58039398   
0.00253582224894 5.63479839727e-05 3751.34918605 -0.448362893333 435.858954933   
0.00237313193305 0.179593815786 1.27888533265 0.0291455838468 435.858954933   
0.00253582224894 5.57133359135e-05 3751.34918605 -0.51361408 368.877976003   
0.00237313193305 0.188907321037 1.27888533265 0.548087807619 368.877976003   
0.00253582224894 3.4342494367e-05 3751.34918605 -0.199854586667 109.942872408   
0.00237313193305 0.140840796946 1.27888533265 0.215194167345 109.942872408   
0.00253582224894 1.27999288723e-05 3751.34918605 -0.0705691933333 33.773206689   
0.00237313193305 0.106054881188 1.27888533265 0.233764705654 33.773206689   
0.00253582224894 1.70882038591e-05 3751.34918605 -0.02402862 11.0486945599   
0.00237313193305 0.0667845688711 1.27888533265 0.144618676123 11.0486945599   
0.00168092592221 0.000239881894454 808.495348991 -0.286023433333 969.940983278   
0.0027669461266 0.185060626848 0.885557549055 0.709437254902 969.940983278   
0.00168092592221 0.000209808640251 808.495348991 -0.50427182 776.58039398   
0.0027669461266 0.195965171257 0.885557549055 -0.485678062444 776.58039398   
0.00168092592221 0.000171714272049 808.495348991 -0.471568426667 435.858954933   
0.0027669461266 0.189555572532 0.885557549055 0.262936920134 435.858954933   
0.00168092592221 0.000159873126173 808.495348991 -0.605337513333 368.877976003   
0.0027669461266 0.188369218027 0.885557549055 -0.135176450092 368.877976003   
0.00168092592221 9.98153663866e-05 808.495348991 -0.255627186667 109.942872408   
0.0027669461266 0.143547905883 0.885557549055 0.0169290633327 109.942872408   
0.00168092592221 5.28088372215e-05 808.495348991 -0.0934329933333 33.773206689   
0.0027669461266 0.066667357767 0.885557549055 -0.0416128714901 33.773206689   
0.00168092592221 3.40763684736e-05 808.495348991 -0.0318687 11.0486945599   
0.0027669461266 0.0436251798268 0.885557549055 -0.0192555305049 11.0486945599   
CALCULATING MATRIX.........n23


finished process
##############################


MATRIX PERMUTATION.....n2

 
MATRIX PERMUTATION.....n3

 
finished process
##############################


MODES.....n2

 
MODES.....n3

 
finished process
##############################


MODES.....n2

 
MODES.....n3

 
finished process 




