

MEAN_L1= 3.32280385507e-05
MEAN_L2= 0.000443411766406

MEAN_L1= 2.59746854507e-05
MEAN_L2= 0.000203123765189
0.00332280385507 0.000143804249799 2440.14882991 -0.415684933333 1428.65669717   
0.00443411766406 0.0940523828447 2.65729929568 0.777170995316 1428.65669717   
0.00332280385507 0.000126472600514 2440.14882991 -0.55885882 1143.55740585   
0.00443411766406 0.195169895769 2.65729929568 0.0402995691866 1143.55740585   
0.00332280385507 0.000109408915914 2440.14882991 -0.448169986667 642.664201725   
0.00443411766406 0.0961567951718 2.65729929568 -0.406359301809 642.664201725   
0.00332280385507 0.000106728980105 2440.14882991 -0.516821313333 546.282742885   
0.00443411766406 0.15144834903 2.65729929568 -0.184063832188 546.282742885   
0.00332280385507 6.10470095666e-05 2440.14882991 -0.20267602 164.111448682   
0.00443411766406 0.0710097832467 2.65729929568 -0.262458990666 164.111448682   
0.00332280385507 3.48110429539e-05 2440.14882991 -0.0722863466667 50.7326061332   
0.00443411766406 0.0458083124032 2.65729929568 -0.185305812562 50.7326061332   
0.00332280385507 1.81997997507e-05 2440.14882991 -0.02489472 16.6135186586   
0.00443411766406 0.0308470619357 2.65729929568 -0.0702751153965 16.6135186586   
0.00259746854507 0.000270758308366 1099.79515561 0.283521973333 1428.65669717   
0.00203123765189 0.103815525816 0.310346066611 -0.803525784205 1428.65669717   
0.00259746854507 0.000236986108117 1099.79515561 0.500788953333 1143.55740585   
0.00203123765189 0.138265269738 0.310346066611 -0.164512098691 1143.55740585   
0.00259746854507 0.000193259507766 1099.79515561 0.47009254 642.664201725   
0.00203123765189 0.147434545251 0.310346066611 0.00719042214857 642.664201725   
0.00259746854507 0.000181325768977 1099.79515561 0.608472926667 546.282742885   
0.00203123765189 0.116801297749 0.310346066611 0.337797211342 546.282742885   
0.00259746854507 0.000114306984592 1099.79515561 0.25946162 164.111448682   
0.00203123765189 0.0766887767311 0.310346066611 0.355162502092 164.111448682   
0.00259746854507 5.98744282671e-05 1099.79515561 0.0958825533333 50.7326061332   
0.00203123765189 0.0447141422904 0.310346066611 0.0625587258545 50.7326061332   
0.00259746854507 3.58184750541e-05 1099.79515561 0.0329545133333 16.6135186586   
0.00203123765189 0.0295273546264 0.310346066611 0.0950919989287 16.6135186586   
CALCULATING MATRIX.........n23


finished process
##############################


MATRIX PERMUTATION.....n2

 
MATRIX PERMUTATION.....n3

 
finished process
##############################


MODES.....n2

 
MODES.....n3

 
finished process
##############################


MODES.....n2

 
MODES.....n3

 
finished process 




